Lab/FinalReport/LabSource/Lab12(export).csv

#Digilent WaveForms Oscilloscope Acquisition
#Device Name: EExplorer
#Serial Number: SN:210151A2B6A6
#Date Time: 2024-05-23 17:46:07.209
#Sample rate: 160000Hz
#Samples: 8192
#Trigger: Source: Channel 1 Type: Edge Condition: Rising Level: 500 mV Hyst.: Auto HoldOff: 0 s
#Channel 1: Range: 500 mV/div Offset: 0 V
#Channel 2: Range: 500 mV/div Offset: 0 V
#Wavegen Channel 1: Running
#Mode: Simple
#Type: Square
#Frequency: 50 Hz
#Amplitude: 500 mV
#Offset: 500 mV
#Symmetry: 50 %
#Phase: 0 ¡Æ

Time (s),Channel 1 (V),Channel 2 (V)
-0.0255954,-0.00618497,0.0447123
-0.0255892,-0.0110185,0.0447123
-0.0255829,-0.00618497,0.0447123
-0.0255767,-0.00618497,0.0447123
-0.0255704,-0.00618497,0.0447123
-0.0255642,-0.00618497,0.0447123
-0.0255579,-0.00618497,0.0447123
-0.0255517,-0.0110185,0.0447123
-0.0255454,-0.00618497,0.0447123
-0.0255392,-0.00618497,0.0447123
-0.0255329,-0.0110185,0.0399101
-0.0255267,-0.00618497,0.0447123
-0.0255204,-0.0110185,0.0399101
-0.0255142,-0.00618497,0.0447123
-0.0255079,-0.00618497,0.0447123
-0.0255017,-0.0110185,0.0399101
-0.0254954,-0.00618497,0.0399101
-0.0254892,-0.0110185,0.0399101
-0.0254829,-0.0110185,0.0399101
-0.0254767,-0.00618497,0.0447123
-0.0254704,-0.00618497,0.0399101
-0.0254642,-0.0110185,0.0399101
-0.0254579,-0.00618497,0.0399101
-0.0254517,-0.00618497,0.0399101
-0.0254454,-0.00618497,0.0399101
-0.0254392,-0.00618497,0.0399101
-0.0254329,-0.00618497,0.0399101
-0.0254267,-0.0110185,0.0399101
-0.0254204,-0.0110185,0.0399101
-0.0254142,-0.0110185,0.035108
-0.0254079,-0.00618497,0.0399101
-0.0254017,-0.0110185,0.0399101
-0.0253954,-0.0110185,0.035108
-0.0253892,-0.00618497,0.0399101
-0.0253829,-0.00618497,0.0399101
-0.0253767,-0.00618497,0.0399101
-0.0253704,-0.0110185,0.0399101
-0.0253642,-0.0110185,0.035108
-0.0253579,-0.0110185,0.035108
-0.0253517,-0.00618497,0.0399101
-0.0253454,-0.00618497,0.0399101
-0.0253392,-0.00618497,0.0399101
-0.0253329,-0.00618497,0.0399101
-0.0253267,-0.0110185,0.035108
-0.0253204,-0.0110185,0.035108
-0.0253142,-0.0110185,0.035108
-0.0253079,-0.0110185,0.035108
-0.0253017,-0.00618497,0.0399101
-0.0252954,-0.00618497,0.0399101
-0.0252892,-0.00618497,0.035108
-0.0252829,-0.0110185,0.035108
-0.0252767,-0.00618497,0.035108
-0.0252704,-0.0110185,0.035108
-0.0252642,-0.00618497,0.035108
-0.0252579,-0.00618497,0.035108
-0.0252517,-0.0110185,0.035108
-0.0252454,-0.0110185,0.035108
-0.0252392,-0.0110185,0.035108
-0.0252329,-0.00618497,0.035108
-0.0252267,-0.00618497,0.035108
-0.0252204,-0.0110185,0.035108
-0.0252142,-0.0110185,0.0303059
-0.0252079,-0.00618497,0.035108
-0.0252017,-0.00618497,0.035108
-0.0251954,-0.00618497,0.035108
-0.0251892,-0.00618497,0.035108
-0.0251829,-0.0110185,0.0303059
-0.0251767,-0.0110185,0.0303059
-0.0251704,-0.00618497,0.035108
-0.0251642,-0.0110185,0.035108
-0.0251579,-0.0110185,0.0303059
-0.0251517,-0.0110185,0.0303059
-0.0251454,-0.0110185,0.0303059
-0.0251392,-0.00618497,0.035108
-0.0251329,-0.00618497,0.035108
-0.0251267,-0.0110185,0.0303059
-0.0251204,-0.00618497,0.035108
-0.0251142,-0.00618497,0.0303059
-0.0251079,-0.0110185,0.0303059
-0.0251017,-0.00618497,0.0303059
-0.0250954,-0.00618497,0.0303059
-0.0250892,-0.0110185,0.0303059
-0.0250829,-0.00618497,0.0303059
-0.0250767,-0.0110185,0.0303059
-0.0250704,-0.0110185,0.0303059
-0.0250642,-0.00618497,0.0303059
-0.0250579,-0.00618497,0.0303059
-0.0250517,-0.00618497,0.0303059
-0.0250454,-0.00618497,0.0303059
-0.0250392,-0.0110185,0.0303059
-0.0250329,-0.00618497,0.0303059
-0.0250267,-0.00618497,0.0303059
-0.0250204,-0.0110185,0.0303059
-0.0250142,-0.00618497,0.0303059
-0.0250079,-0.0110185,0.0303059
-0.0250017,-0.0110185,0.0303059
-0.0249954,-0.00618497,0.0303059
-0.0249892,-0.0110185,0.0303059
-0.0249829,-0.0110185,0.0255038
-0.0249767,-0.00618497,0.0303059
-0.0249704,-0.0110185,0.0255038
-0.0249642,-0.0110185,0.0255038
-0.0249579,-0.00618497,0.0303059
-0.0249517,-0.00618497,0.0303059
-0.0249454,-0.00618497,0.0303059
-0.0249392,-0.00618497,0.0303059
-0.0249329,-0.00618497,0.0303059
-0.0249267,-0.00618497,0.0303059
-0.0249204,-0.00618497,0.0303059
-0.0249142,-0.0110185,0.0255038
-0.0249079,-0.00618497,0.0303059
-0.0249017,-0.00618497,0.0303059
-0.0248954,-0.00618497,0.0303059
-0.0248892,-0.00618497,0.0303059
-0.0248829,-0.00618497,0.0255038
-0.0248767,-0.0110185,0.0255038
-0.0248704,-0.00618497,0.0255038
-0.0248642,-0.00618497,0.0255038
-0.0248579,-0.0110185,0.0255038
-0.0248517,-0.00618497,0.0255038
-0.0248454,-0.0110185,0.0255038
-0.0248392,-0.0110185,0.0255038
-0.0248329,-0.0110185,0.0255038
-0.0248267,-0.0110185,0.0207016
-0.0248204,-0.0110185,0.0255038
-0.0248142,-0.00618497,0.0255038
-0.0248079,-0.0110185,0.0255038
-0.0248017,-0.0110185,0.0255038
-0.0247954,-0.0110185,0.0255038
-0.0247892,-0.0110185,0.0255038
-0.0247829,-0.00618497,0.0255038
-0.0247767,-0.00618497,0.0255038
-0.0247704,-0.00618497,0.0255038
-0.0247642,-0.00618497,0.0255038
-0.0247579,-0.00618497,0.0255038
-0.0247517,-0.0110185,0.0255038
-0.0247454,-0.0110185,0.0255038
-0.0247392,-0.00618497,0.0255038
-0.0247329,-0.0110185,0.0207016
-0.0247267,-0.00618497,0.0255038
-0.0247204,-0.00618497,0.0255038
-0.0247142,-0.00618497,0.0255038
-0.0247079,-0.00618497,0.0255038
-0.0247017,-0.0110185,0.0207016
-0.0246954,-0.0110185,0.0207016
-0.0246892,-0.00618497,0.0255038
-0.0246829,-0.0110185,0.0207016
-0.0246767,-0.00618497,0.0255038
-0.0246704,-0.00618497,0.0255038
-0.0246642,-0.00618497,0.0255038
-0.0246579,-0.00618497,0.0255038
-0.0246517,-0.00618497,0.0255038
-0.0246454,-0.00618497,0.0255038
-0.0246392,-0.00618497,0.0255038
-0.0246329,-0.00618497,0.0255038
-0.0246267,-0.0110185,0.0207016
-0.0246204,-0.00618497,0.0207016
-0.0246142,-0.0110185,0.0207016
-0.0246079,-0.0110185,0.0207016
-0.0246017,-0.0110185,0.0207016
-0.0245954,-0.0110185,0.0207016
-0.0245892,-0.00618497,0.0255038
-0.0245829,-0.00618497,0.0255038
-0.0245767,-0.00618497,0.0207016
-0.0245704,-0.00618497,0.0207016
-0.0245642,-0.00618497,0.0207016
-0.0245579,-0.0110185,0.0207016
-0.0245517,-0.0110185,0.0207016
-0.0245454,-0.00618497,0.0207016
-0.0245392,-0.0110185,0.0207016
-0.0245329,-0.0110185,0.0207016
-0.0245267,-0.00618497,0.0207016
-0.0245204,-0.0110185,0.0207016
-0.0245142,-0.00618497,0.0207016
-0.0245079,-0.00618497,0.0207016
-0.0245017,-0.0110185,0.0207016
-0.0244954,-0.0110185,0.0207016
-0.0244892,-0.0110185,0.0207016
-0.0244829,-0.0110185,0.0207016
-0.0244767,-0.00618497,0.0207016
-0.0244704,-0.00618497,0.0207016
-0.0244642,-0.00618497,0.0207016
-0.0244579,-0.00618497,0.0207016
-0.0244517,-0.0110185,0.0207016
-0.0244454,-0.00618497,0.0207016
-0.0244392,-0.0110185,0.0207016
-0.0244329,-0.0110185,0.0207016
-0.0244267,-0.00618497,0.0207016
-0.0244204,-0.00618497,0.0207016
-0.0244142,-0.00618497,0.0207016
-0.0244079,-0.00618497,0.0207016
-0.0244017,-0.00618497,0.0207016
-0.0243954,-0.00618497,0.0207016
-0.0243892,-0.00618497,0.0207016
-0.0243829,-0.0110185,0.0207016
-0.0243767,-0.0110185,0.0158995
-0.0243704,-0.0110185,0.0158995
-0.0243642,-0.0110185,0.0207016
-0.0243579,-0.00618497,0.0158995
-0.0243517,-0.00618497,0.0207016
-0.0243454,-0.0110185,0.0207016
-0.0243392,-0.0110185,0.0158995
-0.0243329,-0.00618497,0.0207016
-0.0243267,-0.0110185,0.0158995
-0.0243204,-0.0110185,0.0158995
-0.0243142,-0.00618497,0.0207016
-0.0243079,-0.00618497,0.0158995
-0.0243017,-0.00618497,0.0207016
-0.0242954,-0.00618497,0.0158995
-0.0242892,-0.0110185,0.0158995
-0.0242829,-0.0110185,0.0158995
-0.0242767,-0.0110185,0.0158995
-0.0242704,-0.0110185,0.0158995
-0.0242642,-0.00618497,0.0207016
-0.0242579,-0.00618497,0.0207016
-0.0242517,-0.0110185,0.0158995
-0.0242454,-0.0110185,0.0158995
-0.0242392,-0.0110185,0.0158995
-0.0242329,-0.0110185,0.0158995
-0.0242267,-0.0110185,0.0158995
-0.0242204,-0.0110185,0.0158995
-0.0242142,-0.00618497,0.0158995
-0.0242079,-0.00618497,0.0207016
-0.0242017,-0.0110185,0.0158995
-0.0241954,-0.0110185,0.0158995
-0.0241892,-0.00618497,0.0158995
-0.0241829,-0.0110185,0.0158995
-0.0241767,-0.00618497,0.0158995
-0.0241704,-0.00618497,0.0207016
-0.0241642,-0.00618497,0.0158995
-0.0241579,-0.00618497,0.0158995
-0.0241517,-0.0110185,0.0158995
-0.0241454,-0.0110185,0.0158995
-0.0241392,-0.00618497,0.0158995
-0.0241329,-0.0110185,0.0158995
-0.0241267,-0.0110185,0.0158995
-0.0241204,-0.00618497,0.0158995
-0.0241142,-0.0110185,0.0158995
-0.0241079,-0.0110185,0.0110974
-0.0241017,-0.00618497,0.0158995
-0.0240954,-0.00618497,0.0158995
-0.0240892,-0.00618497,0.0158995
-0.0240829,-0.00618497,0.0158995
-0.0240767,-0.0110185,0.0158995
-0.0240704,-0.0110185,0.0158995
-0.0240642,-0.00618497,0.0158995
-0.0240579,-0.0110185,0.0158995
-0.0240517,-0.0110185,0.0158995
-0.0240454,-0.00618497,0.0158995
-0.0240392,-0.0110185,0.0110974
-0.0240329,-0.0110185,0.0158995
-0.0240267,-0.0110185,0.0158995
-0.0240204,-0.0110185,0.0158995
-0.0240142,-0.00618497,0.0158995
-0.0240079,-0.0110185,0.0158995
-0.0240017,-0.0110185,0.0158995
-0.0239954,-0.00618497,0.0158995
-0.0239892,-0.0110185,0.0158995
-0.0239829,-0.0110185,0.0158995
-0.0239767,-0.0110185,0.0158995
-0.0239704,-0.0110185,0.0110974
-0.0239642,-0.0110185,0.0158995
-0.0239579,-0.0110185,0.0158995
-0.0239517,-0.0110185,0.0110974
-0.0239454,-0.0110185,0.0110974
-0.0239392,-0.00618497,0.0158995
-0.0239329,-0.0110185,0.0158995
-0.0239267,-0.00618497,0.0158995
-0.0239204,-0.00618497,0.0110974
-0.0239142,-0.0110185,0.0110974
-0.0239079,-0.0110185,0.0110974
-0.0239017,-0.0110185,0.0110974
-0.0238954,-0.0110185,0.0110974
-0.0238892,-0.00618497,0.0158995
-0.0238829,-0.0110185,0.0110974
-0.0238767,-0.0110185,0.0110974
-0.0238704,-0.00618497,0.0110974
-0.0238642,-0.0110185,0.0110974
-0.0238579,-0.00618497,0.0158995
-0.0238517,-0.00618497,0.0158995
-0.0238454,-0.0110185,0.0110974
-0.0238392,-0.0110185,0.0110974
-0.0238329,-0.0110185,0.0110974
-0.0238267,-0.0110185,0.0110974
-0.0238204,-0.0110185,0.0110974
-0.0238142,-0.00618497,0.0158995
-0.0238079,-0.0110185,0.0110974
-0.0238017,-0.0110185,0.0110974
-0.0237954,-0.0110185,0.0110974
-0.0237892,-0.0110185,0.0110974
-0.0237829,-0.00618497,0.0158995
-0.0237767,-0.00618497,0.0110974
-0.0237704,-0.00618497,0.0110974
-0.0237642,-0.00618497,0.0110974
-0.0237579,-0.0110185,0.0110974
-0.0237517,-0.0110185,0.0110974
-0.0237454,-0.00618497,0.0110974
-0.0237392,-0.00618497,0.0110974
-0.0237329,-0.0110185,0.0110974
-0.0237267,-0.00618497,0.0110974
-0.0237204,-0.0110185,0.0110974
-0.0237142,-0.0110185,0.0110974
-0.0237079,-0.0110185,0.0110974
-0.0237017,-0.00618497,0.0110974
-0.0236954,-0.00618497,0.0110974
-0.0236892,-0.00618497,0.0110974
-0.0236829,-0.0110185,0.0110974
-0.0236767,-0.0110185,0.0110974
-0.0236704,-0.0110185,0.0110974
-0.0236642,-0.0110185,0.0110974
-0.0236579,-0.00618497,0.0110974
-0.0236517,-0.0110185,0.0110974
-0.0236454,-0.0110185,0.0110974
-0.0236392,-0.00618497,0.0110974
-0.0236329,-0.00618497,0.0110974
-0.0236267,-0.0110185,0.0110974
-0.0236204,-0.00618497,0.0110974
-0.0236142,-0.0110185,0.0110974
-0.0236079,-0.0110185,0.0110974
-0.0236017,-0.00618497,0.0110974
-0.0235954,-0.0110185,0.0110974
-0.0235892,-0.0110185,0.00629525
-0.0235829,-0.00618497,0.0110974
-0.0235767,-0.00618497,0.0110974
-0.0235704,-0.00618497,0.0110974
-0.0235642,-0.00618497,0.0110974
-0.0235579,-0.0110185,0.0110974
-0.0235517,-0.00618497,0.0110974
-0.0235454,-0.0110185,0.0110974
-0.0235392,-0.0110185,0.0110974
-0.0235329,-0.00618497,0.0110974
-0.0235267,-0.0110185,0.0110974
-0.0235204,-0.0110185,0.0110974
-0.0235142,-0.00618497,0.0110974
-0.0235079,-0.0110185,0.0110974
-0.0235017,-0.0110185,0.0110974
-0.0234954,-0.00618497,0.0110974
-0.0234892,-0.0110185,0.0110974
-0.0234829,-0.0110185,0.0110974
-0.0234767,-0.00618497,0.0110974
-0.0234704,-0.0110185,0.0110974
-0.0234642,-0.0110185,0.0110974
-0.0234579,-0.00618497,0.0110974
-0.0234517,-0.0110185,0.00629525
-0.0234454,-0.0110185,0.0110974
-0.0234392,-0.00618497,0.0110974
-0.0234329,-0.0110185,0.0110974
-0.0234267,-0.0110185,0.0110974
-0.0234204,-0.00618497,0.0110974
-0.0234142,-0.00618497,0.0110974
-0.0234079,-0.00618497,0.0110974
-0.0234017,-0.0110185,0.0110974
-0.0233954,-0.0110185,0.0110974
-0.0233892,-0.0110185,0.0110974
-0.0233829,-0.0110185,0.00629525
-0.0233767,-0.0110185,0.00629525
-0.0233704,-0.00618497,0.0110974
-0.0233642,-0.00618497,0.0110974
-0.0233579,-0.0110185,0.0110974
-0.0233517,-0.0110185,0.0110974
-0.0233454,-0.0110185,0.00629525
-0.0233392,-0.00618497,0.0110974
-0.0233329,-0.0110185,0.0110974
-0.0233267,-0.0110185,0.00629525
-0.0233204,-0.0110185,0.0110974
-0.0233142,-0.00618497,0.0110974
-0.0233079,-0.0110185,0.00629525
-0.0233017,-0.0110185,0.00629525
-0.0232954,-0.0110185,0.00629525
-0.0232892,-0.0110185,0.00629525
-0.0232829,-0.0110185,0.00629525
-0.0232767,-0.00618497,0.0110974
-0.0232704,-0.0110185,0.00629525
-0.0232642,-0.00618497,0.0110974
-0.0232579,-0.0110185,0.0110974
-0.0232517,-0.0110185,0.00629525
-0.0232454,-0.0110185,0.0110974
-0.0232392,-0.0110185,0.00629525
-0.0232329,-0.00618497,0.0110974
-0.0232267,-0.00618497,0.00629525
-0.0232204,-0.0110185,0.00629525
-0.0232142,-0.0110185,0.00629525
-0.0232079,-0.0110185,0.00629525
-0.0232017,-0.0110185,0.00629525
-0.0231954,-0.0110185,0.00629525
-0.0231892,-0.0110185,0.00629525
-0.0231829,-0.0110185,0.00629525
-0.0231767,-0.00618497,0.0110974
-0.0231704,-0.00618497,0.0110974
-0.0231642,-0.0110185,0.00629525
-0.0231579,-0.0110185,0.00629525
-0.0231517,-0.00618497,0.00629525
-0.0231454,-0.0110185,0.00629525
-0.0231392,-0.0110185,0.00629525
-0.0231329,-0.0110185,0.00629525
-0.0231267,-0.0110185,0.00629525
-0.0231204,-0.0110185,0.00629525
-0.0231142,-0.00618497,0.00629525
-0.0231079,-0.00618497,0.0110974
-0.0231017,-0.00618497,0.0110974
-0.0230954,-0.00618497,0.00629525
-0.0230892,-0.0110185,0.00629525
-0.0230829,-0.00618497,0.0110974
-0.0230767,-0.0110185,0.00629525
-0.0230704,-0.0110185,0.00629525
-0.0230642,-0.00618497,0.00629525
-0.0230579,-0.00618497,0.00629525
-0.0230517,-0.00618497,0.00629525
-0.0230454,-0.0110185,0.00629525
-0.0230392,-0.0110185,0.00629525
-0.0230329,-0.00618497,0.00629525
-0.0230267,-0.0110185,0.00629525
-0.0230204,-0.0110185,0.00629525
-0.0230142,-0.00618497,0.00629525
-0.0230079,-0.0110185,0.00629525
-0.0230017,-0.0110185,0.00629525
-0.0229954,-0.00618497,0.00629525
-0.0229892,-0.0110185,0.00629525
-0.0229829,-0.0110185,0.00629525
-0.0229767,-0.00618497,0.00629525
-0.0229704,-0.0110185,0.00629525
-0.0229642,-0.0110185,0.00629525
-0.0229579,-0.00618497,0.00629525
-0.0229517,-0.0110185,0.00629525
-0.0229454,-0.00618497,0.00629525
-0.0229392,-0.0110185,0.00629525
-0.0229329,-0.0110185,0.00629525
-0.0229267,-0.0110185,0.00629525
-0.0229204,-0.00618497,0.00629525
-0.0229142,-0.0110185,0.00629525
-0.0229079,-0.00618497,0.00629525
-0.0229017,-0.00618497,0.00629525
-0.0228954,-0.0110185,0.00629525
-0.0228892,-0.00618497,0.00629525
-0.0228829,-0.00618497,0.00629525
-0.0228767,-0.0110185,0.00629525
-0.0228704,-0.00618497,0.00629525
-0.0228642,-0.0110185,0.00629525
-0.0228579,-0.0110185,0.00629525
-0.0228517,-0.0110185,0.00629525
-0.0228454,-0.0110185,0.00629525
-0.0228392,-0.00618497,0.00629525
-0.0228329,-0.00618497,0.00629525
-0.0228267,-0.0110185,0.00629525
-0.0228204,-0.0110185,0.00629525
-0.0228142,-0.00618497,0.00629525
-0.0228079,-0.0110185,0.00629525
-0.0228017,-0.00618497,0.00629525
-0.0227954,-0.00618497,0.00629525
-0.0227892,-0.0110185,0.00629525
-0.0227829,-0.00618497,0.00629525
-0.0227767,-0.00618497,0.00629525
-0.0227704,-0.0110185,0.00629525
-0.0227642,-0.00618497,0.00629525
-0.0227579,-0.00618497,0.00629525
-0.0227517,-0.00618497,0.00629525
-0.0227454,-0.00618497,0.00629525
-0.0227392,-0.0110185,0.00629525
-0.0227329,-0.0110185,0.00629525
-0.0227267,-0.0110185,0.00629525
-0.0227204,-0.0110185,0.00629525
-0.0227142,-0.0110185,0.00629525
-0.0227079,-0.00618497,0.00629525
-0.0227017,-0.0110185,0.00629525
-0.0226954,-0.0110185,0.00629525
-0.0226892,-0.0110185,0.00629525
-0.0226829,-0.0110185,0.00629525
-0.0226767,-0.0110185,0.00629525
-0.0226704,-0.0110185,0.00629525
-0.0226642,-0.0110185,0.00629525
-0.0226579,-0.0110185,0.00629525
-0.0226517,-0.0110185,0.00629525
-0.0226454,-0.00618497,0.00629525
-0.0226392,-0.00618497,0.00629525
-0.0226329,-0.0110185,0.00629525
-0.0226267,-0.0110185,0.00149312
-0.0226204,-0.0110185,0.00629525
-0.0226142,-0.0110185,0.00149312
-0.0226079,-0.0110185,0.00149312
-0.0226017,-0.0110185,0.00629525
-0.0225954,-0.0110185,0.00149312
-0.0225892,-0.00618497,0.00629525
-0.0225829,-0.0110185,0.00629525
-0.0225767,-0.0110185,0.00149312
-0.0225704,-0.00618497,0.00629525
-0.0225642,-0.00618497,0.00629525
-0.0225579,-0.0110185,0.00629525
-0.0225517,-0.0110185,0.00629525
-0.0225454,-0.0110185,0.00629525
-0.0225392,-0.0110185,0.00629525
-0.0225329,-0.0110185,0.00629525
-0.0225267,-0.0110185,0.00149312
-0.0225204,-0.0110185,0.00149312
-0.0225142,-0.0110185,0.00629525
-0.0225079,-0.0110185,0.00629525
-0.0225017,-0.00618497,0.00629525
-0.0224954,-0.00618497,0.00629525
-0.0224892,-0.0110185,0.00629525
-0.0224829,-0.00618497,0.00629525
-0.0224767,-0.00618497,0.00629525
-0.0224704,-0.0110185,0.00629525
-0.0224642,-0.0110185,0.00149312
-0.0224579,-0.00618497,0.00629525
-0.0224517,-0.00618497,0.00629525
-0.0224454,-0.00618497,0.00629525
-0.0224392,-0.0110185,0.00149312
-0.0224329,-0.0110185,0.00149312
-0.0224267,-0.00618497,0.00629525
-0.0224204,-0.0110185,0.00629525
-0.0224142,-0.0110185,0.00149312
-0.0224079,-0.00618497,0.00629525
-0.0224017,-0.0110185,0.00149312
-0.0223954,-0.0110185,0.00149312
-0.0223892,-0.00618497,0.00629525
-0.0223829,-0.00618497,0.00629525
-0.0223767,-0.00618497,0.00629525
-0.0223704,-0.0110185,0.00629525
-0.0223642,-0.0110185,0.00629525
-0.0223579,-0.0110185,0.00149312
-0.0223517,-0.0110185,0.00629525
-0.0223454,-0.0110185,0.00149312
-0.0223392,-0.0110185,0.00149312
-0.0223329,-0.0110185,0.00629525
-0.0223267,-0.0110185,0.00629525
-0.0223204,-0.00618497,0.00629525
-0.0223142,-0.00618497,0.00629525
-0.0223079,-0.00618497,0.00629525
-0.0223017,-0.00618497,0.00629525
-0.0222954,-0.00618497,0.00629525
-0.0222892,-0.0110185,0.00149312
-0.0222829,-0.00618497,0.00629525
-0.0222767,-0.00618497,0.00629525
-0.0222704,-0.0110185,0.00149312
-0.0222642,-0.0110185,0.00149312
-0.0222579,-0.0110185,0.00149312
-0.0222517,-0.00618497,0.00629525
-0.0222454,-0.00618497,0.00629525
-0.0222392,-0.0110185,0.00149312
-0.0222329,-0.0110185,0.00149312
-0.0222267,-0.0110185,0.00149312
-0.0222204,-0.0110185,0.00149312
-0.0222142,-0.00618497,0.00629525
-0.0222079,-0.00618497,0.00629525
-0.0222017,-0.0110185,0.00629525
-0.0221954,-0.00618497,0.00149312
-0.0221892,-0.0110185,0.00149312
-0.0221829,-0.0110185,0.00149312
-0.0221767,-0.00618497,0.00149312
-0.0221704,-0.00618497,0.00629525
-0.0221642,-0.0110185,0.00149312
-0.0221579,-0.00618497,0.00629525
-0.0221517,-0.00618497,0.00629525
-0.0221454,-0.0110185,0.00149312
-0.0221392,-0.0110185,0.00629525
-0.0221329,-0.00618497,0.00629525
-0.0221267,-0.0110185,0.00149312
-0.0221204,-0.00618497,0.00149312
-0.0221142,-0.0110185,0.00149312
-0.0221079,-0.00618497,0.00629525
-0.0221017,-0.0110185,0.00149312
-0.0220954,-0.0110185,0.00149312
-0.0220892,-0.0110185,0.00149312
-0.0220829,-0.00618497,0.00149312
-0.0220767,-0.0110185,0.00149312
-0.0220704,-0.0110185,0.00149312
-0.0220642,-0.0110185,0.00149312
-0.0220579,-0.0110185,0.00149312
-0.0220517,-0.0110185,0.00149312
-0.0220454,-0.0110185,0.00149312
-0.0220392,-0.0110185,0.00149312
-0.0220329,-0.00618497,0.00149312
-0.0220267,-0.00618497,0.00149312
-0.0220204,-0.00618497,0.00629525
-0.0220142,-0.00618497,0.00629525
-0.0220079,-0.0110185,0.00149312
-0.0220017,-0.0110185,0.00149312
-0.0219954,-0.00618497,0.00629525
-0.0219892,-0.0110185,0.00149312
-0.0219829,-0.0110185,0.00149312
-0.0219767,-0.00618497,0.00149312
-0.0219704,-0.00618497,0.00149312
-0.0219642,-0.0110185,0.00149312
-0.0219579,-0.00618497,0.00149312
-0.0219517,-0.0110185,0.00149312
-0.0219454,-0.00618497,0.00149312
-0.0219392,-0.00618497,0.00629525
-0.0219329,-0.0110185,0.00149312
-0.0219267,-0.00618497,0.00629525
-0.0219204,-0.00618497,0.00149312
-0.0219142,-0.0110185,0.00149312
-0.0219079,-0.0110185,0.00149312
-0.0219017,-0.00618497,0.00149312
-0.0218954,-0.00618497,0.00149312
