Lab/FinalReport/LabSource/Lab07/Lab07_01.csv

#Digilent WaveForms Oscilloscope Acquisition
#Device Name: EExplorer
#Serial Number: SN:210151647228
#Date Time: 2024-04-18 17:24:44.645
#Sample rate: 1.6e+06Hz
#Samples: 8192
#Trigger: Source: Channel 1 Type: Edge Condition: Rising Level: 500 mV Hyst.: Auto HoldOff: 0 s
#Channel 1: Range: 500 mV/div Offset: 0 V Sample Mode: Average
#Wavegen Channel 1: Running
#Mode: Simple
#Type: Sine
#Frequency: 1 kHz
#Period: 1 ms
#Amplitude: 1 V
#Offset: 0 V
#Symmetry: 50 %
#Phase: 0 °

Time (s),Channel 1 (V)
-0.002559775390625,-0.07085512703093697
-0.002559150390625,-0.08624297599030528
-0.002558525390625,-0.08111369300385152
-0.002557900390625,-0.08624297599030528
-0.002557275390625,-0.09650154196321747
-0.002556650390625,-0.09650154196321747
-0.002556025390625,-0.09650154196321747
-0.002555400390625,-0.106760107936125
-0.002554775390625,-0.1118893909225858
-0.002554150390625,-0.1067601079361367
-0.002553525390625,-0.122147956895498
-0.002552900390625,-0.122147956895498
-0.002552275390625,-0.122147956895498
-0.002551650390625,-0.1324065228684102
-0.002551025390625,-0.1375358058548663
-0.002550400390625,-0.1324065228684102
-0.002549775390625,-0.137535805854864
-0.002549150390625,-0.1477943718277785
-0.002548525390625,-0.1426650888413271
-0.002547900390625,-0.1529236548142346
-0.002547275390625,-0.1580529378006907
-0.002546650390625,-0.1580529378006907
-0.002546025390625,-0.1683115037736029
-0.002545400390625,-0.1683115037736029
-0.002544775390625,-0.173440786760059
-0.002544150390625,-0.1785700697465128
-0.002543525390625,-0.1836993527329712
-0.002542900390625,-0.1836993527329736
-0.002542275390625,-0.1888286357194273
-0.002541650390625,-0.1888286357194273
-0.002541025390625,-0.1939579187058834
-0.002540400390625,-0.1990872016923395
-0.002539775390625,-0.2042164846787933
-0.002539150390625,-0.2042164846787956
-0.002538525390625,-0.2144750506517032
-0.002537900390625,-0.2196043336381639
-0.002537275390625,-0.2144750506517125
-0.002536650390625,-0.22473361662462
-0.002536025390625,-0.22473361662462
-0.002535400390625,-0.22473361662462
-0.002534775390625,-0.2349921825975322
-0.002534150390625,-0.240121465583986
-0.002533525390625,-0.2349921825975322
-0.002532900390625,-0.2452507485704491
-0.002532275390625,-0.2555093145433566
-0.002531650390625,-0.2503800315569052
-0.002531025390625,-0.2606385975298127
-0.002530400390625,-0.2657678805162688
-0.002529775390625,-0.2606385975298127
-0.002529150390625,-0.2657678805162688
-0.002528525390625,-0.2760264464891763
-0.002527900390625,-0.2708971635027249
-0.002527275390625,-0.276026446489188
-0.002526650390625,-0.2914142954485493
-0.002526025390625,-0.2862850124620932
-0.002525400390625,-0.2862850124620932
-0.002524775390625,-0.3016728614214615
-0.002524150390625,-0.2965435784350077
-0.002523525390625,-0.2965435784350054
-0.002522900390625,-0.3119314273943667
-0.002522275390625,-0.3068021444079176
-0.002521650390625,-0.3068021444079246
-0.002521025390625,-0.3221899933672859
-0.002520400390625,-0.3221899933672859
-0.002519775390625,-0.3221899933672859
-0.002519150390625,-0.3324485593401981
-0.002518525390625,-0.3375778423266519
-0.002517900390625,-0.3324485593401981
-0.002517275390625,-0.3427071253131057
-0.002516650390625,-0.3478364082995664
-0.002516025390625,-0.3427071253131126
-0.002515400390625,-0.3478364082995664
-0.002514775390625,-0.3580949742724787
-0.002514150390625,-0.3529656912860225
-0.002513525390625,-0.3632242572589348
-0.002512900390625,-0.3683535402453885
-0.002512275390625,-0.3632242572589348
-0.002511650390625,-0.3683535402453932
-0.002511025390625,-0.3734828232318469
-0.002510400390625,-0.3786121062183054
-0.002509775390625,-0.3837413892047591
-0.002509150390625,-0.3837413892047591
-0.002508525390625,-0.3888706721912152
-0.002507900390625,-0.3939999551776713
-0.002507275390625,-0.3939999551776713
-0.002506650390625,-0.3991292381641274
-0.002506025390625,-0.4042585211505859
-0.002505400390625,-0.4093878041370397
-0.002504775390625,-0.4145170871234981
-0.002504150390625,-0.4196463701099519
-0.002503525390625,-0.4196463701099519
-0.002502900390625,-0.424775653096408
-0.002502275390625,-0.4299049360828641
-0.002501650390625,-0.4350342190693178
-0.002501025390625,-0.4299049360828641
-0.002500400390625,-0.4401635020557786
-0.002499775390625,-0.4452927850422324
-0.002499150390625,-0.4401635020557763
-0.002498525390625,-0.4504220680286884
-0.002497900390625,-0.4555513510151445
-0.002497275390625,-0.4504220680286908
-0.002496650390625,-0.4606806340016006
-0.002496025390625,-0.4658099169880545
-0.002495400390625,-0.4606806340016006
-0.002494775390625,-0.4709391999745152
-0.002494150390625,-0.476068482960969
-0.002493525390625,-0.4709391999745129
-0.002492900390625,-0.476068482960969
-0.002492275390625,-0.4863270489338812
-0.002491650390625,-0.4811977659474274
-0.002491025390625,-0.4811977659474251
-0.002490400390625,-0.496585614906791
-0.002489775390625,-0.4914563319203373
-0.002489150390625,-0.4914563319203443
-0.002488525390625,-0.5068441808797056
-0.002487900390625,-0.5017148978932495
-0.002487275390625,-0.5068441808797056
-0.002486650390625,-0.5171027468526178
-0.002486025390625,-0.511973463866164
-0.002485400390625,-0.5119734638661617
-0.002484775390625,-0.5222320298390739
-0.002484150390625,-0.5222320298390739
-0.002483525390625,-0.5273613128255323
-0.002482900390625,-0.5324905958119861
-0.002482275390625,-0.5376198787984422
-0.002481650390625,-0.5376198787984422
-0.002481025390625,-0.5427491617848983
-0.002480400390625,-0.5478784447713521
-0.002479775390625,-0.5427491617848983
-0.002479150390625,-0.5530077277578105
-0.002478525390625,-0.5530077277578105
-0.002477900390625,-0.5530077277578105
-0.002477275390625,-0.5581370107442666
-0.002476650390625,-0.5632662937307227
-0.002476025390625,-0.5632662937307227
-0.002475400390625,-0.5683955767171788
-0.002474775390625,-0.5683955767171788
-0.002474150390625,-0.5735248597036349
-0.002473525390625,-0.578654142690091
-0.002472900390625,-0.578654142690091
-0.002472275390625,-0.5837834256765471
-0.002471650390625,-0.5889127086630032
-0.002471025390625,-0.5889127086630032
-0.002470400390625,-0.5940419916494569
-0.002469775390625,-0.5991712746359154
-0.002469150390625,-0.5940419916494616
-0.002468525390625,-0.5991712746359154
-0.002467900390625,-0.6094298406088277
-0.002467275390625,-0.6094298406088277
-0.002466650390625,-0.6043005576223716
-0.002466025390625,-0.6196884065817398
-0.002465400390625,-0.6196884065817398
-0.002464775390625,-0.6145591235952861
-0.002464150390625,-0.629946972554652
-0.002463525390625,-0.6299469725546497
-0.002462900390625,-0.6248176895681959
-0.002462275390625,-0.6402055385275642
-0.002461650390625,-0.6402055385275642
-0.002461025390625,-0.6350762555411081
-0.002460400390625,-0.6453348215140203
-0.002459775390625,-0.6504641045004764
-0.002459150390625,-0.6453348215140227
-0.002458525390625,-0.6504641045004764
-0.002457900390625,-0.6607226704733863
-0.002457275390625,-0.6555933874869325
-0.002456650390625,-0.6607226704733933
-0.002456025390625,-0.6709812364463008
-0.002455400390625,-0.6658519534598447
-0.002454775390625,-0.6658519534598447
-0.002454150390625,-0.6761105194327569
-0.002453525390625,-0.6709812364463031
-0.002452900390625,-0.6761105194327569
-0.002452275390625,-0.6863690854056668
-0.002451650390625,-0.681239802419213
-0.002451025390625,-0.681239802419213
-0.002450400390625,-0.6914983683921252
-0.002449775390625,-0.6914983683921252
-0.002449150390625,-0.6914983683921252
-0.002448525390625,-0.6966276513785813
-0.002447900390625,-0.7017569343650351
-0.002447275390625,-0.7017569343650374
-0.002446650390625,-0.7068862173514958
-0.002446025390625,-0.7120155003379497
-0.002445400390625,-0.7120155003379497
-0.002444775390625,-0.7171447833244058
-0.002444150390625,-0.7171447833244058
-0.002443525390625,-0.7171447833244058
-0.002442900390625,-0.727403349297318
-0.002442275390625,-0.7222740663108642
-0.002441650390625,-0.727403349297318
-0.002441025390625,-0.7325326322837741
-0.002440400390625,-0.7325326322837741
-0.002439775390625,-0.7325326322837741
-0.002439150390625,-0.7427911982566863
-0.002438525390625,-0.7376619152702302
-0.002437900390625,-0.7427911982566839
-0.002437275390625,-0.7479204812431424
-0.002436650390625,-0.7479204812431424
-0.002436025390625,-0.7479204812431424
-0.002435400390625,-0.7581790472160546
-0.002434775390625,-0.7581790472160546
-0.002434150390625,-0.7581790472160546
-0.002433525390625,-0.7684376131889621
-0.002432900390625,-0.7633083302025107
-0.002432275390625,-0.7633083302025107
-0.002431650390625,-0.7735668961754228
-0.002431025390625,-0.7684376131889668
-0.002430400390625,-0.7684376131889668
-0.002429775390625,-0.7786961791618789
-0.002429150390625,-0.7786961791618789
-0.002428525390625,-0.7735668961754228
-0.002427900390625,-0.7889547451347841
-0.002427275390625,-0.7889547451347911
-0.002426650390625,-0.7838254621483374
-0.002426025390625,-0.7940840281212472
-0.002425400390625,-0.7940840281212449
-0.002424775390625,-0.7889547451347911
-0.002424150390625,-0.7992133111077033
-0.002423525390625,-0.8043425940941594
-0.002422900390625,-0.7992133111077033
-0.002422275390625,-0.8043425940941571
-0.002421650390625,-0.8094718770806155
-0.002421025390625,-0.8043425940941618
-0.002420400390625,-0.8094718770806155
-0.002419775390625,-0.8197304430535232
-0.002419150390625,-0.8094718770806155
-0.002418525390625,-0.8146011600670716
-0.002417900390625,-0.8248597260399839
-0.002417275390625,-0.8197304430535278
-0.002416650390625,-0.8248597260399816
-0.002416025390625,-0.82998900902644
-0.002415400390625,-0.82998900902644
-0.002414775390625,-0.82998900902644
-0.002414150390625,-0.8351182920128961
-0.002413525390625,-0.8351182920128961
-0.002412900390625,-0.8351182920128961
-0.002412275390625,-0.8402475749993499
-0.002411650390625,-0.8402475749993522
-0.002411025390625,-0.8402475749993522
-0.002410400390625,-0.8453768579858083
-0.002409775390625,-0.8453768579858106
-0.002409150390625,-0.8505061409722644
-0.002408525390625,-0.8556354239587205
-0.002407900390625,-0.8505061409722644
-0.002407275390625,-0.8505061409722644
-0.002406650390625,-0.8607647069451719
-0.002406025390625,-0.8556354239587205
-0.002405400390625,-0.8607647069451743
-0.002404775390625,-0.8658939899316327
-0.002404150390625,-0.8607647069451789
-0.002403525390625,-0.8658939899316327
-0.002402900390625,-0.8710232729180888
-0.002402275390625,-0.8658939899316327
-0.002401650390625,-0.8710232729180888
-0.002401025390625,-0.8761525559045426
-0.002400400390625,-0.8710232729180888
-0.002399775390625,-0.8761525559045472
-0.002399150390625,-0.881281838891001
-0.002398525390625,-0.8812818388909986
-0.002397900390625,-0.8761525559045449
-0.002397275390625,-0.8864111218774571
-0.002396650390625,-0.881281838891001
-0.002396025390625,-0.881281838891001
-0.002395400390625,-0.8966696878503623
-0.002394775390625,-0.8915404048639132
-0.002394150390625,-0.8864111218774617
-0.002393525390625,-0.8966696878503693
-0.002392900390625,-0.8966696878503669
-0.002392275390625,-0.8915404048639132
-0.002391650390625,-0.9017989708368254
-0.002391025390625,-0.9017989708368254
-0.002390400390625,-0.8966696878503693
-0.002389775390625,-0.9069282538232768
-0.002389150390625,-0.9069282538232815
-0.002388525390625,-0.9017989708368277
-0.002387900390625,-0.9069282538232815
-0.002387275390625,-0.9120575368097376
-0.002386650390625,-0.9069282538232815
-0.002386025390625,-0.9120575368097376
-0.002385400390625,-0.9171868197961913
-0.002384775390625,-0.9120575368097376
-0.002384150390625,-0.9171868197961913
-0.002383525390625,-0.9171868197961937
-0.002382900390625,-0.9171868197961937
-0.002382275390625,-0.9171868197961937
-0.002381650390625,-0.9223161027826497
-0.002381025390625,-0.9223161027826497
-0.002380400390625,-0.9223161027826497
-0.002379775390625,-0.9223161027826497
-0.002379150390625,-0.9274453857691058
-0.002378525390625,-0.9274453857691058
-0.002377900390625,-0.9274453857691058
-0.002377275390625,-0.9325746687555621
-0.002376650390625,-0.9325746687555621
-0.002376025390625,-0.9325746687555621
-0.002375400390625,-0.9325746687555621
-0.002374775390625,-0.9377039517420181
-0.002374150390625,-0.9377039517420181
-0.002373525390625,-0.9325746687555621
-0.002372900390625,-0.9377039517420205
-0.002372275390625,-0.9428332347284742
-0.002371650390625,-0.9325746687555644
-0.002371025390625,-0.9377039517420181
-0.002370400390625,-0.9479625177149303
-0.002369775390625,-0.9377039517420228
-0.002369150390625,-0.9428332347284742
-0.002368525390625,-0.9530918007013818
-0.002367900390625,-0.9428332347284742
-0.002367275390625,-0.9479625177149327
-0.002366650390625,-0.9530918007013864
-0.002366025390625,-0.9479625177149303
-0.002365400390625,-0.9479625177149303
-0.002364775390625,-0.9582210836878425
-0.002364150390625,-0.947962517714935
-0.002363525390625,-0.9479625177149303
-0.002362900390625,-0.9633503666742916
-0.002362275390625,-0.9530918007013864
-0.002361650390625,-0.9479625177149373
-0.002361025390625,-0.9633503666742986
-0.002360400390625,-0.9582210836878425
-0.002359775390625,-0.9530918007013864
-0.002359150390625,-0.9633503666742986
-0.002358525390625,-0.9582210836878449
-0.002357900390625,-0.9530918007013864
-0.002357275390625,-0.9684796496607524
-0.002356650390625,-0.9633503666742986
-0.002356025390625,-0.9582210836878449
-0.002355400390625,-0.9633503666742986
-0.002354775390625,-0.9633503666742986
-0.002354150390625,-0.9633503666742986
-0.002353525390625,-0.9684796496607547
-0.002352900390625,-0.9684796496607547
-0.002352275390625,-0.9633503666742986
-0.002351650390625,-0.963350366674301
-0.002351025390625,-0.9684796496607547
-0.002350400390625,-0.9684796496607547
-0.002349775390625,-0.9684796496607547
-0.002349150390625,-0.9736089326472108
-0.002348525390625,-0.9684796496607571
-0.002347900390625,-0.9684796496607547
-0.002347275390625,-0.9684796496607547
-0.002346650390625,-0.9684796496607547
-0.002346025390625,-0.9736089326472108
-0.002345400390625,-0.9736089326472108
-0.002344775390625,-0.9736089326472108
-0.002344150390625,-0.9736089326472108
-0.002343525390625,-0.9736089326472108
-0.002342900390625,-0.9736089326472108
-0.002342275390625,-0.9736089326472108
-0.002341650390625,-0.9736089326472108
-0.002341025390625,-0.9736089326472108
-0.002340400390625,-0.9787382156336669
-0.002339775390625,-0.9787382156336669
-0.002339150390625,-0.9736089326472108
-0.002338525390625,-0.9787382156336669
-0.002337900390625,-0.9787382156336669
-0.002337275390625,-0.9736089326472132
-0.002336650390625,-0.9787382156336669
-0.002336025390625,-0.9787382156336623
-0.002335400390625,-0.9684796496607547
-0.002334775390625,-0.9787382156336669
-0.002334150390625,-0.9787382156336669
-0.002333525390625,-0.9684796496607547
-0.002332900390625,-0.9787382156336669
-0.002332275390625,-0.9787382156336669
-0.002331650390625,-0.9736089326472132
-0.002331025390625,-0.9736089326472108
-0.002330400390625,-0.9787382156336646
-0.002329775390625,-0.9736089326472108
-0.002329150390625,-0.9736089326472155
-0.002328525390625,-0.983867498620123
-0.002327900390625,-0.9736089326472108
-0.002327275390625,-0.9736089326472108
-0.002326650390625,-0.983867498620123
-0.002326025390625,-0.9736089326472155
-0.002325400390625,-0.9684796496607547
-0.002324775390625,-0.9838674986201184
-0.002324150390625,-0.9736089326472108
-0.002323525390625,-0.9736089326472108
-0.002322900390625,-0.983867498620123
-0.002322275390625,-0.9787382156336669
-0.002321650390625,-0.9736089326472132
-0.002321025390625,-0.9787382156336669
-0.002320400390625,-0.9787382156336669
-0.002319775390625,-0.9736089326472108
-0.002319150390625,-0.9787382156336669
-0.002318525390625,-0.9787382156336669
-0.002317900390625,-0.9787382156336669
-0.002317275390625,-0.9787382156336669
-0.002316650390625,-0.9787382156336669
-0.002316025390625,-0.9736089326472132
-0.002315400390625,-0.9787382156336669
-0.002314775390625,-0.9787382156336646
-0.002314150390625,-0.9736089326472108
-0.002313525390625,-0.9787382156336669
-0.002312900390625,-0.9787382156336669
-0.002312275390625,-0.9736089326472108
-0.002311650390625,-0.9736089326472108
-0.002311025390625,-0.9736089326472108
-0.002310400390625,-0.9736089326472108
-0.002309775390625,-0.9736089326472108
-0.002309150390625,-0.9736089326472108
-0.002308525390625,-0.9736089326472108
-0.002307900390625,-0.9736089326472108
-0.002307275390625,-0.9736089326472108
-0.002306650390625,-0.9684796496607547
-0.002306025390625,-0.9736089326472108
-0.002305400390625,-0.9684796496607547
-0.002304775390625,-0.9684796496607547
-0.002304150390625,-0.9736089326472108
-0.002303525390625,-0.9684796496607524
-0.002302900390625,-0.9633503666742986
-0.002302275390625,-0.9684796496607547
-0.002301650390625,-0.9684796496607547
-0.002301025390625,-0.9582210836878425
-0.002300400390625,-0.9684796496607501
-0.002299775390625,-0.9684796496607547
-0.002299150390625,-0.9582210836878472
-0.002298525390625,-0.9684796496607547
-0.002297900390625,-0.9633503666742963
-0.002297275390625,-0.9582210836878425
-0.002296650390625,-0.9633503666742986
-0.002296025390625,-0.9633503666742986
-0.002295400390625,-0.9582210836878425
-0.002294775390625,-0.9530918007013888
-0.002294150390625,-0.9633503666742986
-0.002293525390625,-0.9530918007013911
-0.002292900390625,-0.9530918007013864
-0.002292275390625,-0.963350366674294
-0.002291650390625,-0.9530918007013864
-0.002291025390625,-0.9479625177149303
-0.002290400390625,-0.9582210836878425
-0.002289775390625,-0.9530918007013864
-0.002289150390625,-0.9479625177149327
-0.002288525390625,-0.9530918007013864
-0.002287900390625,-0.9479625177149303
-0.002287275390625,-0.9479625177149303
-0.002286650390625,-0.9530918007013818
-0.002286025390625,-0.9428332347284742
-0.002285400390625,-0.9428332347284742
-0.002284775390625,-0.9479625177149303
-0.002284150390625,-0.9428332347284742
-0.002283525390625,-0.9428332347284742
-0.002282900390625,-0.9428332347284742
-0.002282275390625,-0.9428332347284719
-0.002281650390625,-0.9377039517420181
-0.002281025390625,-0.9428332347284719
-0.002280400390625,-0.9377039517420181
-0.002279775390625,-0.9377039517420181
-0.002279150390625,-0.9377039517420181
-0.002278525390625,-0.9325746687555621
-0.002277900390625,-0.9325746687555621
-0.002277275390625,-0.9325746687555621
-0.002276650390625,-0.9274453857691058
-0.002276025390625,-0.9274453857691058
-0.002275400390625,-0.9274453857691058
-0.002274775390625,-0.9223161027826497
-0.002274150390625,-0.9223161027826497
-0.002273525390625,-0.9223161027826497
-0.002272900390625,-0.9171868197961937
-0.002272275390625,-0.9171868197961937
-0.002271650390625,-0.9223161027826497
-0.002271025390625,-0.9171868197961913
-0.002270400390625,-0.9120575368097376
-0.002269775390625,-0.9171868197961937
-0.002269150390625,-0.9120575368097376
-0.002268525390625,-0.9069282538232815
-0.002267900390625,-0.9120575368097352
-0.002267275390625,-0.9069282538232815
-0.002266650390625,-0.9017989708368277
-0.002266025390625,-0.9069282538232815
-0.002265400390625,-0.9069282538232768
-0.002264775390625,-0.8966696878503693
-0.002264150390625,-0.9017989708368254
-0.002263525390625,-0.9017989708368254
-0.002262900390625,-0.8915404048639132
-0.002262275390625,-0.8966696878503669
-0.002261650390625,-0.8966696878503693
-0.002261025390625,-0.8915404048639132
-0.002260400390625,-0.8915404048639132
-0.002259775390625,-0.8915404048639108
-0.002259150390625,-0.8864111218774571
-0.002258525390625,-0.8864111218774571
-0.002257900390625,-0.8864111218774571
-0.002257275390625,-0.881281838891001
-0.002256650390625,-0.8761525559045472
-0.002256025390625,-0.8864111218774571
-0.002255400390625,-0.8710232729180888
-0.002254775390625,-0.8710232729180888
-0.002254150390625,-0.8761525559045449
-0.002253525390625,-0.8710232729180888
-0.002252900390625,-0.8658939899316327
-0.002252275390625,-0.8710232729180865
-0.002251650390625,-0.8658939899316327
-0.002251025390625,-0.8607647069451789
-0.002250400390625,-0.8658939899316327
-0.002249775390625,-0.8607647069451766
-0.002249150390625,-0.8607647069451766
-0.002248525390625,-0.8607647069451766
-0.002247900390625,-0.8556354239587205
