Lab/FinalReport/LabSource/Lab07/Lab07_03.csv

#Digilent WaveForms Oscilloscope Acquisition
#Device Name: EExplorer
#Serial Number: SN:210151647228
#Date Time: 2024-04-18 17:37:18.212
#Sample rate: 8e+06Hz
#Samples: 8192
#Trigger: Source: Channel 1 Type: Edge Condition: Rising Level: 3 V Hyst.: Auto HoldOff: 0 s
#Channel 1: Range: 2 V/div Offset: 0 V Sample Mode: Average
#Wavegen Channel 1: Running
#Mode: Simple
#Type: Square
#Frequency: 5 kHz
#Period: 200 us
#Amplitude: 2.5 V
#Offset: 2.5 V
#Symmetry: 50 %
#Phase: 0 °
#Wavegen Channel 2: Enabled
#Mode: Simple
#Type: Sine
#Frequency: 1 kHz
#Period: 1 ms
#Amplitude: 1 V
#Offset: 1 V
#Symmetry: 50 %
#Phase: 90 °

Time (s),Channel 1 (V)
-0.0005118781895068807,5.085187360566034
-0.0005117531895068807,5.085187360566034
-0.0005116281895068808,5.085187360566034
-0.0005115031895068807,5.105198592594616
-0.0005113781895068807,5.105198592594625
-0.0005112531895068807,5.105198592594625
-0.0005111281895068807,5.085187360566034
-0.0005110031895068807,5.085187360566034
-0.0005108781895068807,5.085187360566034
-0.0005107531895068807,5.085187360566034
-0.0005106281895068807,5.085187360566034
-0.0005105031895068807,5.105198592594625
-0.0005103781895068807,5.105198592594625
-0.0005102531895068807,5.085187360566034
-0.0005101281895068807,5.085187360566034
-0.0005100031895068808,5.085187360566034
-0.0005098781895068807,5.085187360566034
-0.0005097531895068807,5.105198592594625
-0.0005096281895068807,5.105198592594625
-0.0005095031895068807,5.105198592594625
-0.0005093781895068807,5.085187360566043
-0.0005092531895068807,5.105198592594616
-0.0005091281895068808,5.085187360566043
-0.0005090031895068807,5.085187360566034
-0.0005088781895068807,5.105198592594625
-0.0005087531895068807,5.105198592594625
-0.0005086281895068807,5.105198592594625
-0.0005085031895068807,5.105198592594616
-0.0005083781895068807,5.085187360566034
-0.0005082531895068807,5.085187360566034
-0.0005081281895068807,5.085187360566034
-0.0005080031895068807,5.085187360566034
-0.0005078781895068807,5.085187360566034
-0.0005077531895068807,5.085187360566043
-0.0005076281895068807,5.105198592594625
-0.0005075031895068808,5.105198592594625
-0.0005073781895068807,5.085187360566043
-0.0005072531895068807,5.085187360566034
-0.0005071281895068807,5.085187360566034
-0.0005070031895068807,5.085187360566034
-0.0005068781895068807,5.105198592594616
-0.0005067531895068807,5.085187360566043
-0.0005066281895068807,5.105198592594616
-0.0005065031895068807,5.085187360566034
-0.0005063781895068807,5.085187360566034
-0.0005062531895068807,5.085187360566034
-0.0005061281895068807,5.085187360566034
-0.0005060031895068807,5.085187360566043
-0.0005058781895068808,5.105198592594616
-0.0005057531895068807,5.105198592594625
-0.0005056281895068807,5.085187360566034
-0.0005055031895068807,5.085187360566034
-0.0005053781895068807,5.085187360566034
-0.0005052531895068807,5.085187360566034
-0.0005051281895068807,5.085187360566043
-0.0005050031895068807,5.105198592594616
-0.0005048781895068807,5.105198592594625
-0.0005047531895068807,5.105198592594625
-0.0005046281895068807,5.085187360566034
-0.0005045031895068807,5.085187360566034
-0.0005043781895068807,5.085187360566034
-0.0005042531895068808,5.085187360566034
-0.0005041281895068807,5.085187360566034
-0.0005040031895068807,5.105198592594625
-0.0005038781895068807,5.105198592594625
-0.0005037531895068807,5.085187360566034
-0.0005036281895068807,5.085187360566034
-0.0005035031895068807,5.085187360566034
-0.0005033781895068807,5.085187360566034
-0.0005032531895068807,5.085187360566034
-0.0005031281895068807,5.085187360566034
-0.0005030031895068807,5.105198592594625
-0.0005028781895068807,5.085187360566034
-0.0005027531895068807,5.085187360566025
-0.0005026281895068808,5.065176128537453
-0.0005025031895068807,5.065176128537444
-0.0005023781895068807,5.085187360566034
-0.0005022531895068807,5.085187360566034
-0.0005021281895068807,5.085187360566034
-0.0005020031895068807,5.085187360566034
-0.0005018781895068807,5.085187360566034
-0.0005017531895068807,5.085187360566034
-0.0005016281895068807,5.085187360566034
-0.0005015031895068807,5.065176128537444
-0.0005013781895068807,5.085187360566034
-0.0005012531895068807,5.085187360566034
-0.0005011281895068807,5.085187360566034
-0.0005010031895068808,5.085187360566034
-0.0005008781895068807,5.085187360566034
-0.0005007531895068807,5.065176128537444
-0.0005006281895068807,5.065176128537444
-0.0005005031895068807,5.065176128537444
-0.0005003781895068807,5.085187360566034
-0.0005002531895068807,5.085187360566025
-0.0005001281895068807,5.065176128537453
-0.0005000031895068807,2.163547484391851
-0.0004998781895068807,0.00233442530409865
-0.0004997531895068807,-0.01767680672449165
-0.0004996281895068807,0.00233442530409865
-0.0004995031895068807,0.00233442530409865
-0.0004993781895068808,0.00233442530409865
-0.0004992531895068807,0.00233442530409865
-0.0004991281895068807,0.00233442530409865
-0.0004990031895068807,0.00233442530409865
-0.0004988781895068807,0.00233442530409865
-0.0004987531895068807,0.00233442530409865
-0.0004986281895068807,0.00233442530409865
-0.0004985031895068807,0.00233442530409865
-0.0004983781895068807,0.02234565733268895
-0.0004982531895068807,0.00233442530409865
-0.0004981281895068807,0.00233442530409865
-0.0004980031895068807,0.00233442530409865
-0.0004978781895068807,0.00233442530409865
-0.0004977531895068808,0.00233442530409865
-0.0004976281895068807,0.00233442530409865
-0.0004975031895068807,0.02234565733268895
-0.0004973781895068807,0.00233442530409865
-0.0004972531895068807,0.00233442530409865
-0.0004971281895068807,0.00233442530409865
-0.0004970031895068807,0.00233442530409865
-0.0004968781895068808,0.00233442530409865
-0.0004967531895068807,0.02234565733267985
-0.0004966281895068807,0.02234565733268895
-0.0004965031895068807,0.02234565733268895
-0.0004963781895068807,0.02234565733268895
-0.0004962531895068807,0.02234565733268895
-0.0004961281895068807,0.02234565733268895
-0.0004960031895068807,0.02234565733268895
-0.0004958781895068807,0.02234565733268895
-0.0004957531895068807,0.00233442530409865
-0.0004956281895068807,0.02234565733268895
-0.0004955031895068807,0.02234565733268895
-0.0004953781895068807,0.02234565733268895
-0.0004952531895068808,0.02234565733268895
-0.0004951281895068807,0.02234565733268895
-0.0004950031895068807,0.02234565733268895
-0.0004948781895068807,0.02234565733268895
-0.0004947531895068807,0.04235688936127924
-0.0004946281895068807,0.02234565733268895
-0.0004945031895068807,0.02234565733268895
-0.0004943781895068807,0.02234565733268895
-0.0004942531895068807,0.02234565733268895
-0.0004941281895068807,0.02234565733268895
-0.0004940031895068807,0.02234565733268895
-0.0004938781895068807,0.02234565733268895
-0.0004937531895068807,0.04235688936127924
-0.0004936281895068808,0.04235688936127924
-0.0004935031895068807,0.02234565733269805
-0.0004933781895068807,0.02234565733268895
-0.0004932531895068807,0.02234565733268895
-0.0004931281895068807,0.02234565733268895
-0.0004930031895068807,0.02234565733268895
-0.0004928781895068807,0.02234565733269805
-0.0004927531895068807,0.04235688936127015
-0.0004926281895068807,0.02234565733268895
-0.0004925031895068807,0.02234565733268895
-0.0004923781895068807,0.02234565733268895
-0.0004922531895068807,0.02234565733268895
-0.0004921281895068807,0.02234565733268895
-0.0004920031895068808,0.02234565733268895
-0.0004918781895068807,0.02234565733268895
-0.0004917531895068807,0.02234565733268895
-0.0004916281895068807,0.02234565733268895
-0.0004915031895068807,0.02234565733268895
-0.0004913781895068807,0.00233442530410775
-0.0004912531895068807,0.02234565733268895
-0.0004911281895068807,0.02234565733268895
-0.0004910031895068807,0.02234565733268895
-0.0004908781895068807,0.04235688936127924
-0.0004907531895068807,0.02234565733268895
-0.0004906281895068807,0.02234565733268895
-0.0004905031895068807,0.02234565733268895
-0.0004903781895068808,0.02234565733268895
-0.0004902531895068807,0.02234565733268895
-0.0004901281895068807,0.04235688936127924
-0.0004900031895068807,0.02234565733268895
-0.0004898781895068807,0.02234565733268895
-0.0004897531895068807,0.02234565733267985
-0.0004896281895068807,0.00233442530409865
-0.0004895031895068807,0.00233442530409865
-0.0004893781895068807,0.02234565733268895
-0.0004892531895068807,0.02234565733268895
-0.0004891281895068807,0.04235688936127924
-0.0004890031895068807,0.02234565733268895
-0.0004888781895068807,0.02234565733268895
-0.0004887531895068808,0.02234565733268895
-0.0004886281895068807,0.02234565733268895
-0.0004885031895068807,0.02234565733268895
-0.0004883781895068807,0.02234565733268895
-0.0004882531895068807,0.02234565733268895
-0.0004881281895068808,0.04235688936127924
-0.0004880031895068808,0.04235688936127924
-0.0004878781895068807,0.02234565733268895
-0.0004877531895068807,0.02234565733268895
-0.0004876281895068808,0.02234565733268895
-0.0004875031895068808,0.02234565733268895
-0.0004873781895068807,0.02234565733268895
-0.0004872531895068808,0.04235688936127924
-0.0004871281895068808,0.02234565733268895
-0.0004870031895068807,0.04235688936127924
-0.0004868781895068808,0.04235688936127924
-0.0004867531895068808,0.02234565733268895
-0.0004866281895068807,0.02234565733268895
-0.0004865031895068808,0.02234565733268895
-0.0004863781895068808,0.02234565733268895
-0.0004862531895068807,0.04235688936127924
-0.0004861281895068807,0.02234565733268895
-0.0004860031895068808,0.02234565733268895
-0.0004858781895068808,0.02234565733268895
-0.0004857531895068807,0.02234565733268895
-0.0004856281895068808,0.02234565733268895
-0.0004855031895068808,0.02234565733268895
-0.0004853781895068807,0.04235688936127924
-0.0004852531895068808,0.04235688936127924
-0.0004851281895068808,0.02234565733268895
-0.0004850031895068807,0.02234565733268895
-0.0004848781895068808,0.02234565733268895
-0.0004847531895068808,0.02234565733268895
-0.0004846281895068808,0.02234565733268895
-0.0004845031895068807,0.02234565733268895
-0.0004843781895068808,0.02234565733268895
-0.0004842531895068808,0.02234565733268895
-0.0004841281895068807,0.02234565733268895
-0.0004840031895068808,0.02234565733268895
-0.0004838781895068808,0.00233442530409865
-0.0004837531895068807,0.02234565733268895
-0.0004836281895068808,0.02234565733268895
-0.0004835031895068808,0.02234565733268895
-0.0004833781895068807,0.04235688936127924
-0.0004832531895068808,0.02234565733268895
-0.0004831281895068808,0.00233442530409865
-0.0004830031895068808,0.02234565733268895
-0.0004828781895068807,0.02234565733268895
-0.0004827531895068808,0.02234565733268895
-0.0004826281895068808,0.02234565733268895
-0.0004825031895068807,0.02234565733268895
-0.0004823781895068808,0.02234565733268895
-0.0004822531895068808,0.02234565733268895
-0.0004821281895068807,0.02234565733268895
-0.0004820031895068808,0.02234565733268895
-0.0004818781895068808,0.02234565733268895
-0.0004817531895068807,0.02234565733268895
-0.0004816281895068807,0.04235688936127924
-0.0004815031895068808,0.02234565733268895
-0.0004813781895068808,0.02234565733268895
-0.0004812531895068807,0.02234565733268895
-0.0004811281895068808,0.02234565733268895
-0.0004810031895068808,0.02234565733268895
-0.0004808781895068807,0.04235688936127924
-0.0004807531895068808,0.04235688936127924
-0.0004806281895068808,0.02234565733268895
-0.0004805031895068807,0.02234565733268895
-0.0004803781895068808,0.02234565733268895
-0.0004802531895068808,0.02234565733268895
-0.0004801281895068807,0.02234565733268895
-0.0004800031895068807,0.02234565733268895
-0.0004798781895068808,0.02234565733268895
-0.0004797531895068808,0.02234565733268895
-0.0004796281895068807,0.02234565733268895
-0.0004795031895068808,0.02234565733268895
-0.0004793781895068808,0.02234565733268895
-0.0004792531895068807,0.02234565733268895
-0.0004791281895068808,0.02234565733268895
-0.0004790031895068808,0.02234565733268895
-0.0004788781895068807,0.04235688936127924
-0.0004787531895068808,0.04235688936127924
-0.0004786281895068808,0.04235688936127924
-0.0004785031895068808,0.02234565733268895
-0.0004783781895068807,0.02234565733268895
-0.0004782531895068808,0.02234565733268895
-0.0004781281895068808,0.04235688936127924
-0.0004780031895068807,0.04235688936127924
-0.0004778781895068808,0.04235688936127924
-0.0004777531895068808,0.04235688936127924
-0.0004776281895068807,0.04235688936127924
-0.0004775031895068808,0.02234565733268895
-0.0004773781895068808,0.02234565733268895
-0.0004772531895068807,0.02234565733268895
-0.0004771281895068808,0.04235688936127924
-0.0004770031895068808,0.04235688936127924
-0.0004768781895068808,0.04235688936127924
-0.0004767531895068807,0.04235688936127924
-0.0004766281895068808,0.02234565733268895
-0.0004765031895068808,0.02234565733268895
-0.0004763781895068807,0.02234565733268895
-0.0004762531895068808,0.02234565733268895
-0.0004761281895068808,0.04235688936127924
-0.0004760031895068807,0.04235688936127924
-0.0004758781895068808,0.02234565733268895
-0.0004757531895068808,0.02234565733268895
-0.0004756281895068807,0.02234565733268895
-0.0004755031895068807,0.02234565733268895
-0.0004753781895068808,0.02234565733268895
-0.0004752531895068808,0.04235688936127924
-0.0004751281895068807,0.04235688936127924
-0.0004750031895068808,0.02234565733268895
-0.0004748781895068808,0.02234565733268895
-0.0004747531895068807,0.02234565733268895
-0.0004746281895068808,0.02234565733268895
-0.0004745031895068808,0.02234565733268895
-0.0004743781895068807,0.02234565733268895
-0.0004742531895068808,0.02234565733268895
-0.0004741281895068808,0.04235688936127924
-0.0004740031895068808,0.02234565733268895
-0.0004738781895068807,0.02234565733268895
-0.0004737531895068808,0.02234565733268895
-0.0004736281895068808,0.00233442530409865
-0.0004735031895068807,0.02234565733268895
-0.0004733781895068808,0.02234565733268895
-0.0004732531895068808,0.02234565733268895
-0.0004731281895068807,0.02234565733268895
-0.0004730031895068808,0.02234565733268895
-0.0004728781895068808,0.02234565733268895
-0.0004727531895068807,0.00233442530409865
-0.0004726281895068808,0.02234565733268895
-0.0004725031895068808,0.02234565733268895
-0.0004723781895068808,0.02234565733268895
-0.0004722531895068807,0.02234565733268895
-0.0004721281895068808,0.02234565733268895
-0.0004720031895068808,0.02234565733268895
-0.0004718781895068807,0.02234565733268895
-0.0004717531895068808,0.02234565733268895
-0.0004716281895068808,0.02234565733268895
-0.0004715031895068807,0.04235688936127924
-0.0004713781895068808,0.02234565733268895
-0.0004712531895068808,0.02234565733268895
-0.0004711281895068807,0.02234565733268895
-0.0004710031895068808,0.02234565733268895
-0.0004708781895068808,0.02234565733268895
-0.0004707531895068808,0.02234565733268895
-0.0004706281895068807,0.04235688936127924
-0.0004705031895068808,0.04235688936127924
-0.0004703781895068808,0.04235688936127924
-0.0004702531895068807,0.04235688936127924
-0.0004701281895068808,0.02234565733268895
-0.0004700031895068808,0.02234565733268895
-0.0004698781895068807,0.04235688936127924
-0.0004697531895068808,0.04235688936127924
-0.0004696281895068808,0.04235688936127924
-0.0004695031895068807,0.04235688936127924
-0.0004693781895068807,0.02234565733268895
-0.0004692531895068808,0.02234565733268895
-0.0004691281895068808,0.02234565733268895
-0.0004690031895068807,0.02234565733268895
-0.0004688781895068808,0.02234565733268895
-0.0004687531895068808,0.04235688936127924
-0.0004686281895068807,0.04235688936127924
-0.0004685031895068808,0.04235688936127924
-0.0004683781895068808,0.02234565733268895
-0.0004682531895068807,0.02234565733268895
-0.0004681281895068808,0.02234565733268895
-0.0004680031895068808,0.02234565733268895
-0.0004678781895068808,0.04235688936127924
-0.0004677531895068807,0.04235688936127924
-0.0004676281895068808,0.04235688936127924
-0.0004675031895068808,0.04235688936127924
-0.0004673781895068807,0.04235688936127924
-0.0004672531895068808,0.04235688936127924
-0.0004671281895068808,0.02234565733268895
-0.0004670031895068807,0.04235688936127924
-0.0004668781895068808,0.04235688936127924
-0.0004667531895068808,0.06236812138986954
-0.0004666281895068807,0.04235688936127924
-0.0004665031895068808,0.04235688936127924
-0.0004663781895068808,0.02234565733268895
-0.0004662531895068808,0.02234565733268895
-0.0004661281895068807,0.02234565733268895
-0.0004660031895068808,0.04235688936127924
-0.0004658781895068808,0.04235688936127924
-0.0004657531895068807,0.04235688936127924
-0.0004656281895068808,0.04235688936127924
-0.0004655031895068808,0.02234565733268895
-0.0004653781895068807,0.04235688936127924
-0.0004652531895068808,0.02234565733268895
-0.0004651281895068808,0.02234565733268895
-0.0004650031895068807,0.04235688936127924
-0.0004648781895068808,0.04235688936127924
-0.0004647531895068808,0.06236812138986954
-0.0004646281895068808,0.04235688936127924
-0.0004645031895068807,0.02234565733268895
-0.0004643781895068808,0.02234565733268895
-0.0004642531895068808,0.02234565733268895
-0.0004641281895068807,0.04235688936127924
-0.0004640031895068808,0.04235688936127924
-0.0004638781895068808,0.04235688936127924
-0.0004637531895068807,0.04235688936127924
-0.0004636281895068808,0.04235688936127924
-0.0004635031895068808,0.04235688936127924
-0.0004633781895068807,0.02234565733268895
-0.0004632531895068807,0.04235688936127924
-0.0004631281895068808,0.04235688936127924
-0.0004630031895068808,0.04235688936127924
-0.0004628781895068807,0.04235688936127924
-0.0004627531895068808,0.04235688936127924
-0.0004626281895068808,0.04235688936127924
-0.0004625031895068807,0.02234565733268895
-0.0004623781895068808,0.04235688936127924
-0.0004622531895068808,0.04235688936127924
-0.0004621281895068807,0.04235688936127924
-0.0004620031895068808,0.04235688936127924
-0.0004618781895068808,0.04235688936127924
-0.0004617531895068808,0.04235688936127924
-0.0004616281895068807,0.04235688936127924
-0.0004615031895068808,0.04235688936127924
-0.0004613781895068808,0.04235688936127924
-0.0004612531895068807,0.04235688936127924
-0.0004611281895068808,0.04235688936127924
-0.0004610031895068808,0.04235688936127924
-0.0004608781895068807,0.04235688936127924
-0.0004607531895068808,0.04235688936127924
-0.0004606281895068808,0.04235688936127924
-0.0004605031895068807,0.04235688936127924
-0.0004603781895068808,0.04235688936127924
-0.0004602531895068808,0.04235688936127924
-0.0004601281895068808,0.04235688936127924
-0.0004600031895068807,0.02234565733268895
-0.0004598781895068808,0.02234565733268895
-0.0004597531895068808,0.02234565733268895
-0.0004596281895068807,0.04235688936127924
-0.0004595031895068808,0.04235688936127924
-0.0004593781895068808,0.04235688936127924
-0.0004592531895068807,0.04235688936127924
-0.0004591281895068808,0.04235688936127924
-0.0004590031895068808,0.04235688936127924
-0.0004588781895068807,0.02234565733268895
-0.0004587531895068807,0.04235688936127924
-0.0004586281895068808,0.04235688936127924
-0.0004585031895068808,0.04235688936127924
-0.0004583781895068807,0.04235688936127924
-0.0004582531895068808,0.04235688936127924
-0.0004581281895068808,0.04235688936127924
-0.0004580031895068807,0.04235688936127924
-0.0004578781895068808,0.02234565733268895
-0.0004577531895068808,0.04235688936127924
-0.0004576281895068807,0.04235688936127924
-0.0004575031895068808,0.04235688936127924
-0.0004573781895068808,0.04235688936127924
-0.0004572531895068807,0.04235688936127924
-0.0004571281895068807,0.02234565733268895
-0.0004570031895068808,0.04235688936127924
-0.0004568781895068808,0.02234565733268895
-0.0004567531895068807,0.04235688936127924
-0.0004566281895068808,0.04235688936127924
-0.0004565031895068808,0.04235688936127924
-0.0004563781895068807,0.04235688936127924
-0.0004562531895068808,0.04235688936127924
-0.0004561281895068808,0.02234565733268895
-0.0004560031895068807,0.02234565733268895
-0.0004558781895068808,0.04235688936127924
-0.0004557531895068808,0.04235688936127924
-0.0004556281895068808,0.04235688936127924
-0.0004555031895068807,0.04235688936127924
-0.0004553781895068808,0.02234565733268895
-0.0004552531895068808,0.02234565733268895
