LabSource/Lab07/Lab07_02.csv

#Digilent WaveForms Oscilloscope Acquisition
#Device Name: EExplorer
#Serial Number: SN:210151647228
#Date Time: 2024-04-18 17:31:48.554
#Sample rate: 1.6e+06Hz
#Samples: 8192
#Trigger: Source: Channel 1 Type: Edge Condition: Rising Level: 500 mV Hyst.: Auto HoldOff: 0 s
#Channel 1: Range: 500 mV/div Offset: 0 V Sample Mode: Average
#Channel 2: Range: 500 mV/div Offset: 0 V Sample Mode: Average
#Wavegen Channel 1: Running
#Mode: Simple
#Type: Sine
#Frequency: 1 kHz
#Period: 1 ms
#Amplitude: 1 V
#Offset: 0 V
#Symmetry: 50 %
#Phase: 0 °
#Wavegen Channel 2: Running
#Mode: Simple
#Type: Sine
#Frequency: 1 kHz
#Period: 1 ms
#Amplitude: 1 V
#Offset: 1 V
#Symmetry: 50 %
#Phase: 90 °

Time (s),Channel 1 (V),Channel 2 (V)
-0.00255955078125,-0.07598441001739309,1.658423300912543
-0.00255892578125,-0.08111369300384919,1.658423300912543
-0.00255830078125,-0.08624297599030528,1.663511172994822
-0.00255767578125,-0.08624297599030528,1.668599045077096
-0.00255705078125,-0.09137225897676138,1.668599045077096
-0.00255642578125,-0.09650154196321747,1.673686917159372
-0.00255580078125,-0.09650154196321747,1.673686917159372
-0.00255517578125,-0.1016308249496713,1.678774789241646
-0.00255455078125,-0.1067601079361297,1.683862661323925
-0.00255392578125,-0.106760107936132,1.683862661323927
-0.00255330078125,-0.1118893909225858,1.688950533406201
-0.00255267578125,-0.1170186739090419,1.694038405488475
-0.00255205078125,-0.1170186739090419,1.688950533406201
-0.00255142578125,-0.1272772398819541,1.699126277570754
-0.00255080078125,-0.1272772398819541,1.70421414965303
-0.00255017578125,-0.1272772398819541,1.699126277570754
-0.00254955078125,-0.1375358058548616,1.709302021735302
-0.00254892578125,-0.1426650888413224,1.709302021735307
-0.00254830078125,-0.137535805854871,1.704214149653035
-0.00254767578125,-0.1477943718277785,1.714389893817583
-0.00254705078125,-0.1580529378006884,1.714389893817583
-0.00254642578125,-0.1529236548142346,1.714389893817583
-0.00254580078125,-0.1631822207871468,1.719477765899859
-0.00254517578125,-0.1683115037736006,1.724565637982133
-0.00254455078125,-0.1631822207871468,1.719477765899859
-0.00254392578125,-0.1683115037736006,1.719477765899859
-0.00254330078125,-0.1836993527329712,1.734741382146688
-0.00254267578125,-0.1785700697465151,1.729653510064412
-0.00254205078125,-0.1785700697465151,1.729653510064412
-0.00254142578125,-0.1939579187058834,1.744917126311241
-0.00254080078125,-0.1939579187058834,1.734741382146688
-0.00254017578125,-0.1939579187058834,1.734741382146688
-0.00253955078125,-0.2093457676652447,1.755092870475784
-0.00253892578125,-0.2042164846787956,1.739829254228965
-0.00253830078125,-0.2093457676652494,1.744917126311239
-0.00253767578125,-0.2196043336381639,1.755092870475794
-0.00253705078125,-0.2196043336381616,1.750004998393517
-0.00253642578125,-0.2144750506517078,1.750004998393517
-0.00253580078125,-0.2298628996110761,1.76018074255807
-0.00253517578125,-0.2298628996110761,1.76018074255807
-0.00253455078125,-0.2298628996110761,1.755092870475794
-0.00253392578125,-0.2401214655839837,1.760180742558068
-0.00253330078125,-0.2452507485704444,1.770356486722622
-0.00253267578125,-0.240121465583993,1.760180742558074
-0.00253205078125,-0.2503800315569005,1.770356486722622
-0.00253142578125,-0.2555093145433566,1.78053223088717
-0.00253080078125,-0.2555093145433566,1.770356486722622
-0.00253017578125,-0.2606385975298127,1.775444358804899
-0.00252955078125,-0.2657678805162688,1.785620102969451
-0.00252892578125,-0.2657678805162688,1.780532230887175
-0.00252830078125,-0.2708971635027226,1.785620102969449
-0.00252767578125,-0.2708971635027249,1.790707975051728
-0.00252705078125,-0.2760264464891833,1.790707975051728
-0.00252642578125,-0.2811557294756371,1.790707975051728
-0.00252580078125,-0.2862850124620955,1.795795847134004
-0.00252517578125,-0.2914142954485493,1.795795847134004
-0.00252455078125,-0.2965435784350054,1.795795847134004
-0.00252392578125,-0.2965435784350054,1.800883719216278
-0.00252330078125,-0.3016728614214615,1.805971591298557
-0.00252267578125,-0.3068021444079153,1.805971591298557
-0.00252205078125,-0.3068021444079176,1.805971591298557
-0.00252142578125,-0.3119314273943761,1.811059463380833
-0.00252080078125,-0.3170607103808298,1.811059463380833
-0.00252017578125,-0.3221899933672859,1.811059463380833
-0.00251955078125,-0.3221899933672859,1.811059463380833
-0.00251892578125,-0.327319276353742,1.821235207545386
-0.00251830078125,-0.3324485593401958,1.821235207545386
-0.00251767578125,-0.3324485593401981,1.821235207545386
-0.00251705078125,-0.3427071253131057,1.82632307962766
-0.00251642578125,-0.3427071253131103,1.826323079627662
-0.00251580078125,-0.342707125313115,1.821235207545393
-0.00251517578125,-0.3529656912860225,1.836498823792215
-0.00251455078125,-0.3529656912860225,1.831410951709938
-0.00251392578125,-0.3529656912860225,1.831410951709938
-0.00251330078125,-0.3632242572589348,1.841586695874491
-0.00251267578125,-0.3683535402453885,1.841586695874491
-0.00251205078125,-0.3632242572589348,1.831410951709938
-0.00251142578125,-0.3734828232318493,1.841586695874493
-0.00251080078125,-0.378612106218303,1.846674567956767
-0.00251017578125,-0.3786121062183054,1.841586695874491
-0.00250955078125,-0.3837413892047591,1.841586695874491
-0.00250892578125,-0.3888706721912152,1.85685031212132
-0.00250830078125,-0.3837413892047591,1.841586695874491
-0.00250767578125,-0.3888706721912152,1.846674567956767
-0.00250705078125,-0.4042585211505765,1.861938184203589
-0.00250642578125,-0.3991292381641274,1.851762440039044
-0.00250580078125,-0.3991292381641344,1.851762440039053
-0.00250517578125,-0.4145170871234958,1.872113928368149
-0.00250455078125,-0.4093878041370397,1.85685031212132
-0.00250392578125,-0.4093878041370397,1.85685031212132
-0.00250330078125,-0.424775653096408,1.877201800450425
-0.00250267578125,-0.4196463701099519,1.867026056285873
-0.00250205078125,-0.424775653096408,1.867026056285873
-0.00250142578125,-0.4350342190693155,1.877201800450421
-0.00250080078125,-0.4299049360828641,1.877201800450425
-0.00250017578125,-0.4299049360828687,1.867026056285877
-0.00249955078125,-0.4401635020557763,1.877201800450425
-0.00249892578125,-0.4452927850422324,1.882289672532702
-0.00249830078125,-0.4452927850422324,1.872113928368149
-0.00249767578125,-0.4504220680286884,1.882289672532702
-0.00249705078125,-0.4555513510151422,1.887377544614976
-0.00249642578125,-0.4555513510151445,1.877201800450425
-0.00249580078125,-0.4658099169880521,1.882289672532699
-0.00249517578125,-0.4658099169880568,1.892465416697254
-0.00249455078125,-0.4658099169880615,1.882289672532704
-0.00249392578125,-0.476068482960969,1.887377544614978
-0.00249330078125,-0.4709391999745129,1.892465416697254
-0.00249267578125,-0.476068482960969,1.887377544614978
-0.00249205078125,-0.4811977659474251,1.892465416697254
-0.00249142578125,-0.4811977659474251,1.892465416697254
-0.00249080078125,-0.4863270489338812,1.897553288779531
-0.00249017578125,-0.4914563319203373,1.897553288779531
-0.00248955078125,-0.4914563319203373,1.897553288779531
-0.00248892578125,-0.5017148978932495,1.902641160861807
-0.00248830078125,-0.5017148978932495,1.902641160861807
-0.00248767578125,-0.5017148978932495,1.902641160861807
-0.00248705078125,-0.5068441808797056,1.907729032944083
-0.00248642578125,-0.5119734638661617,1.902641160861807
-0.00248580078125,-0.5119734638661617,1.907729032944081
-0.00248517578125,-0.5119734638661617,1.907729032944083
-0.00248455078125,-0.5222320298390739,1.907729032944085
-0.00248392578125,-0.5222320298390739,1.912816905026359
-0.00248330078125,-0.5222320298390786,1.907729032944085
-0.00248267578125,-0.5324905958119861,1.912816905026359
-0.00248205078125,-0.5324905958119861,1.912816905026359
-0.00248142578125,-0.5324905958119861,1.912816905026359
-0.00248080078125,-0.5427491617848983,1.922992649190912
-0.00248017578125,-0.5427491617848983,1.917904777108638
-0.00247955078125,-0.5427491617848983,1.912816905026359
-0.00247892578125,-0.5530077277578105,1.922992649190912
-0.00247830078125,-0.5530077277578105,1.922992649190912
-0.00247767578125,-0.5530077277578105,1.917904777108636
-0.00247705078125,-0.5581370107442666,1.928080521273189
-0.00247642578125,-0.5632662937307227,1.928080521273189
-0.00247580078125,-0.5581370107442689,1.922992649190914
-0.00247517578125,-0.5683955767171788,1.928080521273189
-0.00247455078125,-0.5735248597036325,1.933168393355463
-0.00247392578125,-0.5735248597036349,1.922992649190912
-0.00247330078125,-0.5735248597036395,1.928080521273193
-0.00247267578125,-0.5837834256765471,1.938256265437741
-0.00247205078125,-0.578654142690091,1.928080521273189
-0.00247142578125,-0.5837834256765471,1.928080521273189
-0.00247080078125,-0.5991712746359154,1.948432009602294
-0.00247017578125,-0.5889127086630078,1.933168393355472
-0.00246955078125,-0.5940419916494593,1.928080521273189
-0.00246892578125,-0.6043005576223669,1.948432009602284
-0.00246830078125,-0.5991712746359154,1.938256265437741
-0.00246767578125,-0.6043005576223762,1.933168393355472
-0.00246705078125,-0.6145591235952838,1.948432009602294
-0.00246642578125,-0.6094298406088277,1.938256265437741
-0.00246580078125,-0.6145591235952838,1.938256265437741
-0.00246517578125,-0.6248176895681959,1.948432009602294
-0.00246455078125,-0.6196884065817422,1.948432009602294
-0.00246392578125,-0.6248176895681959,1.938256265437741
-0.00246330078125,-0.629946972554652,1.948432009602296
-0.00246267578125,-0.629946972554652,1.95351988168457
-0.00246205078125,-0.6350762555411105,1.94334413752002
-0.00246142578125,-0.6402055385275642,1.948432009602294
-0.00246080078125,-0.6402055385275642,1.95351988168457
-0.00246017578125,-0.6402055385275642,1.943344137520018
-0.00245955078125,-0.6504641045004764,1.948432009602294
-0.00245892578125,-0.6453348215140227,1.958607753766842
-0.00245830078125,-0.6504641045004764,1.95351988168457
-0.00245767578125,-0.6555933874869325,1.953519881684572
-0.00245705078125,-0.6555933874869325,1.958607753766846
-0.00245642578125,-0.6607226704733909,1.95351988168457
-0.00245580078125,-0.6658519534598447,1.95351988168457
-0.00245517578125,-0.6658519534598447,1.958607753766846
-0.00245455078125,-0.6709812364462985,1.958607753766846
-0.00245392578125,-0.6761105194327569,1.958607753766846
-0.00245330078125,-0.6761105194327569,1.953519881684572
-0.00245267578125,-0.681239802419213,1.958607753766846
-0.00245205078125,-0.6863690854056691,1.958607753766844
-0.00245142578125,-0.6863690854056691,1.95351988168457
-0.00245080078125,-0.6863690854056691,1.963695625849123
-0.00245017578125,-0.6914983683921252,1.963695625849123
-0.00244955078125,-0.6914983683921252,1.958607753766846
-0.00244892578125,-0.6914983683921252,1.958607753766846
-0.00244830078125,-0.7017569343650374,1.963695625849123
-0.00244767578125,-0.7017569343650374,1.958607753766849
-0.00244705078125,-0.6966276513785813,1.95351988168457
-0.00244642578125,-0.7120155003379497,1.96369562584912
-0.00244580078125,-0.7120155003379497,1.958607753766846
-0.00244517578125,-0.7068862173514935,1.958607753766846
-0.00244455078125,-0.7222740663108619,1.968783497931399
-0.00244392578125,-0.7171447833244058,1.963695625849123
-0.00244330078125,-0.7171447833244058,1.958607753766849
-0.00244267578125,-0.727403349297318,1.968783497931399
-0.00244205078125,-0.7274033492973156,1.96369562584912
-0.00244142578125,-0.7222740663108619,1.958607753766846
-0.00244080078125,-0.7325326322837741,1.968783497931399
-0.00244017578125,-0.7325326322837741,1.968783497931399
-0.00243955078125,-0.7325326322837741,1.958607753766846
-0.00243892578125,-0.7376619152702302,1.963695625849123
-0.00243830078125,-0.7427911982566863,1.973871370013675
-0.00243767578125,-0.7376619152702325,1.958607753766853
-0.00243705078125,-0.7427911982566863,1.963695625849123
-0.00243642578125,-0.7530497642295961,1.973871370013669
-0.00243580078125,-0.7479204812431424,1.958607753766846
-0.00243517578125,-0.7530497642296008,1.963695625849127
-0.00243455078125,-0.7581790472160546,1.973871370013675
-0.00243392578125,-0.7530497642295985,1.963695625849123
-0.00243330078125,-0.7581790472160522,1.958607753766849
-0.00243267578125,-0.7633083302025107,1.973871370013675
-0.00243205078125,-0.7633083302025107,1.963695625849127
-0.00243142578125,-0.7684376131889668,1.963695625849123
-0.00243080078125,-0.7735668961754228,1.968783497931397
-0.00243017578125,-0.7735668961754228,1.963695625849123
-0.00242955078125,-0.7735668961754228,1.958607753766846
-0.00242892578125,-0.7786961791618789,1.963695625849123
-0.00242830078125,-0.7786961791618789,1.968783497931399
-0.00242767578125,-0.7786961791618789,1.958607753766851
-0.00242705078125,-0.7889547451347911,1.963695625849123
-0.00242642578125,-0.7889547451347911,1.968783497931397
-0.00242580078125,-0.7889547451347911,1.958607753766846
-0.00242517578125,-0.7940840281212472,1.963695625849125
-0.00242455078125,-0.7940840281212472,1.968783497931399
-0.00242392578125,-0.7940840281212472,1.963695625849123
-0.00242330078125,-0.7992133111077033,1.963695625849123
-0.00242267578125,-0.7992133111077033,1.963695625849123
-0.00242205078125,-0.7992133111077033,1.963695625849123
-0.00242142578125,-0.8094718770806155,1.963695625849123
-0.00242080078125,-0.8043425940941618,1.963695625849123
-0.00242017578125,-0.8094718770806155,1.963695625849123
-0.00241955078125,-0.8197304430535255,1.96369562584912
-0.00241892578125,-0.8146011600670716,1.958607753766846
-0.00241830078125,-0.8197304430535278,1.963695625849123
-0.00241767578125,-0.8248597260399839,1.963695625849123
-0.00241705078125,-0.8197304430535278,1.95351988168457
-0.00241642578125,-0.8248597260399816,1.958607753766844
-0.00241580078125,-0.82998900902644,1.958607753766846
-0.00241517578125,-0.8248597260399863,1.958607753766846
-0.00241455078125,-0.82998900902644,1.958607753766846
-0.00241392578125,-0.8351182920128938,1.96369562584912
-0.00241330078125,-0.82998900902644,1.958607753766846
-0.00241267578125,-0.82998900902644,1.958607753766846
-0.00241205078125,-0.8402475749993475,1.968783497931395
-0.00241142578125,-0.8351182920128961,1.958607753766846
-0.00241080078125,-0.8351182920128961,1.948432009602298
-0.00241017578125,-0.8505061409722644,1.963695625849123
-0.00240955078125,-0.845376857985806,1.953519881684568
-0.00240892578125,-0.8402475749993522,1.948432009602294
-0.00240830078125,-0.8556354239587205,1.963695625849123
-0.00240767578125,-0.8505061409722644,1.95351988168457
-0.00240705078125,-0.8505061409722644,1.943344137520018
-0.00240642578125,-0.8607647069451719,1.953519881684566
-0.00240580078125,-0.8607647069451766,1.95351988168457
-0.00240517578125,-0.8556354239587228,1.948432009602296
-0.00240455078125,-0.8658939899316327,1.95351988168457
-0.00240392578125,-0.8658939899316304,1.953519881684566
-0.00240330078125,-0.8607647069451766,1.943344137520018
-0.00240267578125,-0.8658939899316327,1.943344137520018
-0.00240205078125,-0.8710232729180888,1.95351988168457
-0.00240142578125,-0.8658939899316327,1.938256265437741
-0.00240080078125,-0.8710232729180865,1.943344137520015
-0.00240017578125,-0.881281838891001,1.95351988168457
-0.00239955078125,-0.8761525559045449,1.933168393355467
-0.00239892578125,-0.8761525559045449,1.938256265437741
-0.00239830078125,-0.8864111218774524,1.948432009602289
-0.00239767578125,-0.8761525559045449,1.938256265437741
-0.00239705078125,-0.881281838891001,1.938256265437741
-0.00239642578125,-0.8864111218774571,1.943344137520018
-0.00239580078125,-0.8864111218774571,1.938256265437741
-0.00239517578125,-0.8864111218774571,1.933168393355467
-0.00239455078125,-0.8915404048639132,1.938256265437741
-0.00239392578125,-0.8915404048639132,1.933168393355463
-0.00239330078125,-0.8915404048639132,1.928080521273189
-0.00239267578125,-0.8966696878503693,1.933168393355467
-0.00239205078125,-0.8966696878503693,1.938256265437741
-0.00239142578125,-0.8966696878503693,1.928080521273189
-0.00239080078125,-0.901798970836823,1.933168393355463
-0.00239017578125,-0.8966696878503693,1.933168393355465
-0.00238955078125,-0.901798970836823,1.928080521273191
-0.00238892578125,-0.9069282538232815,1.928080521273189
-0.00238830078125,-0.9017989708368277,1.928080521273189
-0.00238767578125,-0.9069282538232815,1.928080521273189
-0.00238705078125,-0.9069282538232815,1.928080521273189
-0.00238642578125,-0.9017989708368254,1.922992649190912
-0.00238580078125,-0.9069282538232815,1.928080521273189
-0.00238517578125,-0.9120575368097352,1.922992649190914
-0.00238455078125,-0.9069282538232815,1.917904777108636
-0.00238392578125,-0.917186819796189,1.92299264919091
-0.00238330078125,-0.9171868197961937,1.922992649190912
-0.00238267578125,-0.9120575368097399,1.912816905026362
-0.00238205078125,-0.9171868197961937,1.917904777108636
-0.00238142578125,-0.9223161027826497,1.917904777108636
-0.00238080078125,-0.9171868197961937,1.912816905026359
-0.00238017578125,-0.9223161027826497,1.912816905026359
-0.00237955078125,-0.9274453857691035,1.912816905026359
-0.00237892578125,-0.9223161027826497,1.912816905026359
-0.00237830078125,-0.9223161027826544,1.907729032944085
-0.00237767578125,-0.9325746687555621,1.912816905026359
-0.00237705078125,-0.9274453857691058,1.902641160861805
-0.00237642578125,-0.9274453857691058,1.897553288779531
-0.00237580078125,-0.9377039517420181,1.912816905026359
-0.00237517578125,-0.9274453857691058,1.902641160861807
-0.00237455078125,-0.9325746687555621,1.892465416697254
-0.00237392578125,-0.9428332347284696,1.907729032944076
-0.00237330078125,-0.9325746687555621,1.897553288779531
-0.00237267578125,-0.9325746687555667,1.887377544614985
-0.00237205078125,-0.9428332347284742,1.902641160861807
-0.00237142578125,-0.9377039517420181,1.89246541669725
-0.00237080078125,-0.9377039517420181,1.882289672532702
-0.00237017578125,-0.9479625177149303,1.892465416697254
-0.00236955078125,-0.9479625177149303,1.892465416697254
-0.00236892578125,-0.9377039517420181,1.882289672532702
-0.00236830078125,-0.9479625177149257,1.887377544614976
-0.00236767578125,-0.9479625177149303,1.892465416697254
-0.00236705078125,-0.9428332347284766,1.877201800450428
-0.00236642578125,-0.9479625177149303,1.882289672532702
-0.00236580078125,-0.9530918007013864,1.887377544614978
-0.00236517578125,-0.9479625177149303,1.877201800450425
-0.00236455078125,-0.9479625177149303,1.872113928368149
-0.00236392578125,-0.9530918007013841,1.887377544614971
-0.00236330078125,-0.9479625177149303,1.867026056285873
-0.00236267578125,-0.9530918007013841,1.872113928368147
-0.00236205078125,-0.9582210836878425,1.877201800450425
-0.00236142578125,-0.9530918007013864,1.867026056285873
-0.00236080078125,-0.9530918007013864,1.867026056285873
-0.00236017578125,-0.9582210836878425,1.872113928368149
-0.00235955078125,-0.9530918007013864,1.867026056285873
-0.00235892578125,-0.9530918007013864,1.85685031212132
-0.00235830078125,-0.9582210836878402,1.861938184203594
-0.00235767578125,-0.9582210836878425,1.861938184203596
-0.00235705078125,-0.9582210836878449,1.851762440039046
-0.00235642578125,-0.9633503666742986,1.85685031212132
-0.00235580078125,-0.9633503666742963,1.856850312121318
-0.00235517578125,-0.9582210836878425,1.851762440039044
-0.00235455078125,-0.9633503666742986,1.851762440039044
-0.00235392578125,-0.9633503666742986,1.851762440039044
-0.00235330078125,-0.9633503666742986,1.841586695874491
-0.00235267578125,-0.9684796496607524,1.846674567956765
-0.00235205078125,-0.9633503666742986,1.841586695874491
-0.00235142578125,-0.963350366674301,1.841586695874491
-0.00235080078125,-0.9684796496607547,1.841586695874491
-0.00235017578125,-0.963350366674301,1.836498823792215
-0.00234955078125,-0.9684796496607547,1.836498823792215
-0.00234892578125,-0.9736089326472108,1.836498823792215
-0.00234830078125,-0.9633503666743033,1.826323079627667
-0.00234767578125,-0.9684796496607547,1.831410951709938
-0.00234705078125,-0.9736089326472085,1.826323079627664
-0.00234642578125,-0.9684796496607547,1.821235207545386
-0.00234580078125,-0.9736089326472132,1.821235207545388
-0.00234517578125,-0.9787382156336669,1.826323079627662
-0.00234455078125,-0.9736089326472108,1.811059463380833
